{
  "name": "elevensixty",
  "version": "1.0.0",
  "homepage": "http://github.com/mariojankovic/elevensixty",
  "authors": [
    "Mario Jankovic <majankovi@gmail.com>"
  ],
  "description": "A SASS framework based on Bourbon/Neat",
  "keywords": [
    "SASS",
    "Bourbon",
    "Neat",
    "framework"
  ],
  "license": "MIT",
  "private": true,
  "ignore": [
    "**/.*",
    "node_modules",
    "bower_components",
    "test",
    "tests"
  ],
  "dependencies": {
    "jquery": "~2.1.3",
    "normalize.css": "~3.0.2",
    "slick-carousel": "~1.5.9"
  },
  "resolutions": {
    "jquery": "~2.1.3"
  }
}
